Stat 585 - Working in teams: Sample solution for the test case
…
## What is the relationship between height and weight? 

Read the data: 

```r
iowa <- readr::read_csv("https://github.com/Stat585-at-ISU/materials/raw/master/01_collaborative-environment/data/brfss_iowa.csv") 
# the read_csv function from the readr package is faster than the standard read.csv
# but the output is a tibble (we'll come back to that)

iowa
```

```
## # A tibble: 6,227 x 330
##    X_STATE FMONTH IDATE IMONTH IDAY  IYEAR DISPCODE  SEQNO  X_PSU CTELENUM
##      <int>  <int> <chr> <chr>  <chr> <int>    <int>  <int>  <int>    <int>
##  1      19      7 0708… 07     08     2015     1200 2.02e9 2.02e9       NA
##  2      19      3 0321… 03     21     2015     1200 2.02e9 2.02e9       NA
##  3      19     10 0110… 01     10     2016     1200 2.02e9 2.02e9       NA
##  4      19      4 0509… 05     09     2015     1200 2.02e9 2.02e9       NA
##  5      19      5 0624… 06     24     2015     1200 2.02e9 2.02e9       NA
##  6      19      7 0803… 08     03     2015     1200 2.02e9 2.02e9       NA
##  7      19      7 0812… 08     12     2015     1200 2.02e9 2.02e9       NA
##  8      19      7 0810… 08     10     2015     1200 2.02e9 2.02e9       NA
##  9      19     10 1115… 11     15     2015     1200 2.02e9 2.02e9       NA
## 10      19      8 0813… 08     13     2015     1200 2.02e9 2.02e9       NA
## # ... with 6,217 more rows, and 320 more variables: PVTRESD1 <int>,
## #   COLGHOUS <int>, STATERES <int>, CELLFON3 <int>, LADULT <int>,
## #   NUMADULT <int>, NUMMEN <int>, NUMWOMEN <int>, CTELNUM1 <int>,
## #   CELLFON2 <int>, CADULT <int>, PVTRESD2 <int>, CCLGHOUS <chr>,
## #   CSTATE <int>, LANDLINE <int>, HHADULT <int>, GENHLTH <int>,
## #   PHYSHLTH <int>, MENTHLTH <int>, POORHLTH <int>, HLTHPLN1 <int>,
## #   PERSDOC2 <int>, MEDCOST <int>, CHECKUP1 <int>, BPHIGH4 <int>,
## #   BPMEDS <int>, BLOODCHO <int>, CHOLCHK <int>, TOLDHI2 <int>,
## #   CVDINFR4 <int>, CVDCRHD4 <int>, CVDSTRK3 <int>, ASTHMA3 <int>,
…
