Stat 585 - Working with lists - Your Turn solution
…
---

## Extract residuals and fitted values

```r
countryFit <- countryList %>% 
  select(country, continent, data, model) %>%
  mutate(fitted = model %>% purrr::map(broom::augment)) %>% 
  select(-model) %>% unnest()

countryFit
```

```
## # A tibble: 1,704 x 15
##    country continent  year lifeExp    pop gdpPercap lifeExp1
##    <fct>   <fct>     <dbl>   <dbl>  <int>     <dbl>    <dbl>
##  1 Afghan… Asia          2    28.8 8.43e6      779.     28.8
##  2 Afghan… Asia          7    30.3 9.24e6      821.     30.3
##  3 Afghan… Asia         12    32.0 1.03e7      853.     32.0
##  4 Afghan… Asia         17    34.0 1.15e7      836.     34.0
##  5 Afghan… Asia         22    36.1 1.31e7      740.     36.1
##  6 Afghan… Asia         27    38.4 1.49e7      786.     38.4
##  7 Afghan… Asia         32    39.9 1.29e7      978.     39.9
##  8 Afghan… Asia         37    40.8 1.39e7      852.     40.8
##  9 Afghan… Asia         42    41.7 1.63e7      649.     41.7
## 10 Afghan… Asia         47    41.8 2.22e7      635.     41.8
## # ... with 1,694 more rows, and 8 more variables:
## #   year1 <dbl>, .fitted <dbl>, .se.fit <dbl>,
## #   .resid <dbl>, .hat <dbl>, .sigma <dbl>, .cooksd <dbl>,
## #   .std.resid <dbl>
```
…
