Stat 585 - Working with lists
…
## nest

- `nest` is a function in `tidyr`: creates variable `data`

- `data` is variable of data frames

```r
gapminder2 <- gapminder %>% mutate(year = year-1950)
countryList <- gapminder2 %>% nest(-country, -continent) 
countryList 
```

```
## # A tibble: 142 x 3
##    country     continent data             
##    <fct>       <fct>     <list>           
##  1 Afghanistan Asia      <tibble [12 × 4]>
##  2 Albania     Europe    <tibble [12 × 4]>
##  3 Algeria     Africa    <tibble [12 × 4]>
##  4 Angola      Africa    <tibble [12 × 4]>
##  5 Argentina   Americas  <tibble [12 × 4]>
##  6 Australia   Oceania   <tibble [12 × 4]>
##  7 Austria     Europe    <tibble [12 × 4]>
##  8 Bahrain     Asia      <tibble [12 × 4]>
##  9 Bangladesh  Asia      <tibble [12 × 4]>
## 10 Belgium     Europe    <tibble [12 × 4]>
## # ... with 132 more rows
```
…
---

## Ready to fly!

The opposite of `nest` is `unnest`:

```r
coefs <- countryList %>% select(country, continent, coefs) %>% 
  unnest()
coefs
```

```
## # A tibble: 284 x 7
##    country continent term  estimate std.error statistic
##    <fct>   <fct>     <chr>    <dbl>     <dbl>     <dbl>
##  1 Afghan… Asia      (Int…   29.4     0.699       42.0 
##  2 Afghan… Asia      year     0.275   0.0205      13.5 
##  3 Albania Europe    (Int…   58.6     1.13        51.7 
##  4 Albania Europe    year     0.335   0.0332      10.1 
##  5 Algeria Africa    (Int…   42.2     0.756       55.8 
##  6 Algeria Africa    year     0.569   0.0221      25.7 
##  7 Angola  Africa    (Int…   31.7     0.804       39.4 
##  8 Angola  Africa    year     0.209   0.0235       8.90
##  9 Argent… Americas  (Int…   62.2     0.167      372.  
## 10 Argent… Americas  year     0.232   0.00489     47.4 
## # ... with 274 more rows, and 1 more variable:
## #   p.value <dbl>
```
…
